{
  "page": 1,
  "total_results": 385350,
  "total_pages": 19268,
  "results": [
    {
      "vote_count": 1851,
      "id": 335983,
      "video": false,
      "vote_average": 6.6,
      "title": "Venom",
      "popularity": 361.906,
      "poster_path": "/2uNW4WbgBXL25BAbXGLnLqX71Sw.jpg",
      "original_language": "en",
      "original_title": "Venom",
      "genre_ids": [
        878
      ],
      "backdrop_path": "/VuukZLgaCrho2Ar8Scl9HtV3yD.jpg",
      "adult": false,
      "overview": "When Eddie Brock acquires the powers of a symbiote, he will have to release his alter-ego \"Venom\" to save his life.",
      "release_date": "2018-10-03"
    },
    {
      "vote_count": 551,
      "id": 424139,
      "video": false,
      "vote_average": 6.7,
      "title": "Halloween",
      "popularity": 258.21,
      "poster_path": "/bXs0zkv2iGVViZEy78teg2ycDBm.jpg",
      "original_language": "en",
      "original_title": "Halloween",
      "genre_ids": [
        27,
        53
      ],
      "backdrop_path": "/tZ358Wk4BnOc4FjdGsiexAUvCMH.jpg",
      "adult": false,
      "overview": "Laurie Strode comes to her final confrontation with Michael Myers, the masked figure who has haunted her since she narrowly escaped his killing spree on Halloween night four decades ago.",
      "release_date": "2018-10-18"
    },
    {
      "vote_count": 3270,
      "id": 260513,
      "video": false,
      "vote_average": 7.6,
      "title": "Incredibles 2",
      "popularity": 219.909,
      "poster_path": "/x1txcDXkcM65gl7w20PwYSxAYah.jpg",
      "original_language": "en",
      "original_title": "Incredibles 2",
      "genre_ids": [
        28,
        12,
        16,
        10751
      ],
      "backdrop_path": "/mabuNsGJgRuCTuGqjFkWe1xdu19.jpg",
      "adult": false,
      "overview": "Elastigirl springs into action to save the day, while Mr. Incredible faces his greatest challenge yet – taking care of the problems of his three children.",
      "release_date": "2018-06-14"
    },
    {
      "vote_count": 51,
      "id": 507569,
      "video": false,
      "vote_average": 6,
      "title": "The Seven Deadly Sins: Prisoners of the Sky",
      "popularity": 188.745,
      "poster_path": "/lgYGPujZNckyKwQQNwMLmkWoKui.jpg",
      "original_language": "en",
      "original_title": "劇場版 七つの大罪 天空の囚われ人",
      "genre_ids": [
        28,
        12,
        14,
        16
      ],
      "backdrop_path": "/uKwOX7MtKlAaGeCQe6c4jc1vZpj.jpg",
      "adult": false,
      "overview": "Traveling in search of the rare ingredient, “sky fish”  Meliodas and Hawk arrive at a palace that floats above the clouds. The people there are busy preparing a ceremony, meant to protect their home from a ferocious beast that awakens once every 3,000 years. But before the ritual is complete, the Six Knights of Black—a Demon Clan army—removes the seal on the beast, threatening the lives of everyone in the Sky Palace.",
      "release_date": "2018-08-18"
    },
    {
      "vote_count": 1291,
      "id": 332562,
      "video": false,
      "vote_average": 7.6,
      "title": "A Star Is Born",
      "popularity": 179.436,
      "poster_path": "/wrFpXMNBRj2PBiN4Z5kix51XaIZ.jpg",
      "original_language": "en",
      "original_title": "A Star Is Born",
      "genre_ids": [
        18,
        10402,
        10749
      ],
      "backdrop_path": "/840rbblaLc4SVxm8gF3DNdJ0YAE.jpg",
      "adult": false,
      "overview": "Seasoned musician Jackson Maine discovers—and falls in love with—struggling artist Ally. She has just about given up on her dream to make it big as a singer—until Jack coaxes her into the spotlight. But even as Ally's career takes off, the personal side of their relationship is breaking down, as Jack fights an ongoing battle with his own internal demons.",
      "release_date": "2018-10-03"
    },
    {
      "vote_count": 788,
      "id": 345887,
      "video": false,
      "vote_average": 6.2,
      "title": "The Equalizer 2",
      "popularity": 168.696,
      "poster_path": "/cQvc9N6JiMVKqol3wcYrGshsIdZ.jpg",
      "original_language": "en",
      "original_title": "The Equalizer 2",
      "genre_ids": [
        53,
        28,
        80
      ],
      "backdrop_path": "/z6KLDE72SxE1A8JcJTmmnWArOvR.jpg",
      "adult": false,
      "overview": "Robert McCall, who serves an unflinching justice for the exploited and oppressed, embarks on a relentless, globe-trotting quest for vengeance when a long-time girl friend is murdered.",
      "release_date": "2018-07-19"
    },
    {
      "vote_count": 17,
      "id": 523873,
      "video": false,
      "vote_average": 4,
      "title": "Kung Fu League",
      "popularity": 144.873,
      "poster_path": "/rW0A73hjzPWVwADlCTLnjLhAFLX.jpg",
      "original_language": "zh",
      "original_title": "功夫联盟",
      "genre_ids": [
        28,
        35
      ],
      "backdrop_path": null,
      "adult": false,
      "overview": "Martial arts comedy following a group of kung fu legends banding together to take on the bad guys. The legends includes VINCENT ZHAO reprising his role as ‘Wong Fei Hung’ with DENNIS TO once again portraying ‘Wing Chun’ master ‘Ip Man’, DANNY CHAN KWOK KWAN as ‘Chen Zhen’ and ANDY ON as master ‘Huo Yuan Jia’.",
      "release_date": "2018-10-19"
    },
    {
      "vote_count": 1291,
      "id": 439079,
      "video": false,
      "vote_average": 5.8,
      "title": "The Nun",
      "popularity": 137.653,
      "poster_path": "/sFC1ElvoKGdHJIWRpNB3xWJ9lJA.jpg",
      "original_language": "en",
      "original_title": "The Nun",
      "genre_ids": [
        27,
        9648,
        53
      ],
      "backdrop_path": "/fgsHxz21B27hOOqQBiw9L6yWcM7.jpg",
      "adult": false,
      "overview": "When a young nun at a cloistered abbey in Romania takes her own life, a priest with a haunted past and a novitiate on the threshold of her final vows are sent by the Vatican to investigate. Together they uncover the order’s unholy secret. Risking not only their lives but their faith and their very souls, they confront a malevolent force in the form of the same demonic nun that first terrorized audiences in “The Conjuring 2” as the abbey becomes a horrific battleground between the living and the damned.",
      "release_date": "2018-09-05"
    },
    {
      "vote_count": 231,
      "id": 347375,
      "video": false,
      "vote_average": 5.8,
      "title": "Mile 22",
      "popularity": 125.21,
      "poster_path": "/2L8ehd95eSW9x7KINYtZmRkAlrZ.jpg",
      "original_language": "en",
      "original_title": "Mile 22",
      "genre_ids": [
        28,
        53
      ],
      "backdrop_path": "/A2rIVEV2jOzb4smx8hby1u9UwAm.jpg",
      "adult": false,
      "overview": "An elite group of American operatives, aided by a top-secret tactical command team, must transport an asset who holds life-threatening information to an extraction point 22 miles away through the hostile streets of an Asian city.",
      "release_date": "2018-08-16"
    },
    {
      "vote_count": 1369,
      "id": 345940,
      "video": false,
      "vote_average": 6,
      "title": "The Meg",
      "popularity": 123.303,
      "poster_path": "/eyWICPcxOuTcDDDbTMOZawoOn8d.jpg",
      "original_language": "en",
      "original_title": "The Meg",
      "genre_ids": [
        28,
        878,
        53
      ],
      "backdrop_path": "/rH79sB6Nkx4cMW3JzsUy7wK0rhX.jpg",
      "adult": false,
      "overview": "A deep sea submersible pilot revisits his past fears in the Mariana Trench, and accidentally unleashes the seventy foot ancestor of the Great White Shark believed to be extinct.",
      "release_date": "2018-08-09"
    },
    {
      "vote_count": 199,
      "id": 424694,
      "video": false,
      "vote_average": 8.5,
      "title": "Bohemian Rhapsody",
      "popularity": 122.672,
      "poster_path": "/jf7jiy0rDVn1ljUwv3pWKousQ1p.jpg",
      "original_language": "en",
      "original_title": "Bohemian Rhapsody",
      "genre_ids": [
        18,
        10402
      ],
      "backdrop_path": "/jNUpYq2jRSwQM89vST9yQZelMSu.jpg",
      "adult": false,
      "overview": "Singer Freddie Mercury, guitarist Brian May, drummer Roger Taylor and bass guitarist John Deacon take the music world by storm when they form the rock 'n' roll band Queen in 1970. Hit songs become instant classics. When Mercury's increasingly wild lifestyle starts to spiral out of control, Queen soon faces its greatest challenge yet – finding a way to keep the band together amid the success and excess.",
      "release_date": "2018-10-24"
    },
    {
      "vote_count": 128,
      "id": 454293,
      "video": false,
      "vote_average": 6.3,
      "title": "Night School",
      "popularity": 110.078,
      "poster_path": "/1NSMAaBPSbWv7sGmF8oLGMNb8Qm.jpg",
      "original_language": "en",
      "original_title": "Night School",
      "genre_ids": [
        35
      ],
      "backdrop_path": "/7CWpvqVY5JWbEtkaenzqfJjVSal.jpg",
      "adult": false,
      "overview": "Teddy Walker is a successful salesman whose life takes an unexpected turn when he accidentally blows up his place of employment. Forced to attend night school to get his GED, Teddy soon finds himself dealing with a group of misfit students, his former high school nemesis and a feisty teacher who doesn't think he's too bright.",
      "release_date": "2018-09-27"
    },
    {
      "vote_count": 9100,
      "id": 299536,
      "video": false,
      "vote_average": 8.3,
      "title": "Avengers: Infinity War",
      "popularity": 109.413,
      "poster_path": "/7WsyChQLEftFiDOVTGkv3hFpyyt.jpg",
      "original_language": "en",
      "original_title": "Avengers: Infinity War",
      "genre_ids": [
        12,
        878,
        28,
        14
      ],
      "backdrop_path": "/lmZFxXgJE3vgrciwuDib0N8CfQo.jpg",
      "adult": false,
      "overview": "As the Avengers and their allies have continued to protect the world from threats too large for any one hero to handle, a new danger has emerged from the cosmic shadows: Thanos. A despot of intergalactic infamy, his goal is to collect all six Infinity Stones, artifacts of unimaginable power, and use them to inflict his twisted will on all of reality. Everything the Avengers have fought for has led up to this moment - the fate of Earth and existence itself has never been more uncertain.",
      "release_date": "2018-04-25"
    },
    {
      "vote_count": 463,
      "id": 369972,
      "video": false,
      "vote_average": 7.2,
      "title": "First Man",
      "popularity": 99.261,
      "poster_path": "/i91mfvFcPPlaegcbOyjGgiWfZzh.jpg",
      "original_language": "en",
      "original_title": "First Man",
      "genre_ids": [
        36,
        18
      ],
      "backdrop_path": "/z1FkoHO7bz40S4JiptWHSYoPpxq.jpg",
      "adult": false,
      "overview": "A look at the life of the astronaut, Neil Armstrong, and the legendary space mission that led him to become the first man to walk on the Moon on July 20, 1969.",
      "release_date": "2018-10-11"
    },
    {
      "vote_count": 712,
      "id": 346910,
      "video": false,
      "vote_average": 5.3,
      "title": "The Predator",
      "popularity": 95.878,
      "poster_path": "/wMq9kQXTeQCHUZOG4fAe5cAxyUA.jpg",
      "original_language": "en",
      "original_title": "The Predator",
      "genre_ids": [
        27,
        878,
        28,
        53
      ],
      "backdrop_path": "/f4E0ocYeToEuXvczZv6QArrMDJ.jpg",
      "adult": false,
      "overview": "From the outer reaches of space to the small-town streets of suburbia, the hunt comes home. Now, the universe’s most lethal hunters are stronger, smarter and deadlier than ever before, having genetically upgraded themselves with DNA from other species. When a young boy accidentally triggers their return to Earth, only a ragtag crew of ex-soldiers and a disgruntled science teacher can prevent the end of the human race.",
      "release_date": "2018-09-13"
    },
    {
      "vote_count": 3123,
      "id": 363088,
      "video": false,
      "vote_average": 6.9,
      "title": "Ant-Man and the Wasp",
      "popularity": 95.5,
      "poster_path": "/rv1AWImgx386ULjcf62VYaW8zSt.jpg",
      "original_language": "en",
      "original_title": "Ant-Man and the Wasp",
      "genre_ids": [
        28,
        12,
        878,
        35,
        10751
      ],
      "backdrop_path": "/6P3c80EOm7BodndGBUAJHHsHKrp.jpg",
      "adult": false,
      "overview": "Just when his time under house arrest is about to end, Scott Lang puts again his freedom at risk to help Hope van Dyne and Dr. Hank Pym dive into the quantum realm and try to accomplish, against time and any chance of success, a very dangerous rescue mission.",
      "release_date": "2018-07-04"
    },
    {
      "vote_count": 25,
      "id": 399402,
      "video": false,
      "vote_average": 5.8,
      "title": "Hunter Killer",
      "popularity": 92.233,
      "poster_path": "/82eQFmaLjRv3othN6BV3Ac80Abh.jpg",
      "original_language": "en",
      "original_title": "Hunter Killer",
      "genre_ids": [
        28,
        53
      ],
      "backdrop_path": "/gCIB3DdK00DyfwosVGf7pnFFdK3.jpg",
      "adult": false,
      "overview": "An untested American submarine captain teams with U.S. Navy Seals to rescue the Russian president, who has been kidnapped by a rogue general.",
      "release_date": "2018-10-19"
    },
    {
      "vote_count": 1166,
      "id": 447200,
      "video": false,
      "vote_average": 6.1,
      "title": "Skyscraper",
      "popularity": 86.919,
      "poster_path": "/5LYSsOPzuP13201qSzMjNxi8FxN.jpg",
      "original_language": "en",
      "original_title": "Skyscraper",
      "genre_ids": [
        28
      ],
      "backdrop_path": "/oMKFQmoVgB69fyXfSMu0lGlHJP2.jpg",
      "adult": false,
      "overview": "Framed and on the run, a former FBI agent must save his family from a blazing fire in the world's tallest building.",
      "release_date": "2018-07-11"
    },
    {
      "vote_count": 394,
      "id": 399360,
      "video": false,
      "vote_average": 5.4,
      "title": "Alpha",
      "popularity": 84.971,
      "poster_path": "/afdZAIcAQscziqVtsEoh2PwsYTW.jpg",
      "original_language": "en",
      "original_title": "Alpha",
      "genre_ids": [
        12,
        18
      ],
      "backdrop_path": "/nKMeTdm72LQ756Eq20uTjF1zDXu.jpg",
      "adult": false,
      "overview": "After a hunting expedition goes awry, a young caveman struggles against the elements to find his way home.",
      "release_date": "2018-08-17"
    },
    {
      "vote_count": 400,
      "id": 420814,
      "video": false,
      "vote_average": 7.5,
      "title": "Christopher Robin",
      "popularity": 79.54,
      "poster_path": "/xR5w0he6czZkcAz459a4iPBqXGe.jpg",
      "original_language": "en",
      "original_title": "Christopher Robin",
      "genre_ids": [
        16,
        12,
        35,
        10751,
        14
      ],
      "backdrop_path": "/uDt8bQ4lGVlabEx5Gl2cPzvy6qz.jpg",
      "adult": false,
      "overview": "Working-class family man Christopher Robin encounters his childhood friend Winnie-the-Pooh, who helps him to rediscover the joys of life.",
      "release_date": "2018-08-02"
    }
  ]
}